^C:\PROGRAMMING\CPLUSPLUS\2013SPRING\SORTING\QUICKSORT\TESTQUICKSORT\TESTQUICKSORT\DEBUG\MAIN.OBJ
C:\PROGRAMMING\CPLUSPLUS\2013SPRING\SORTING\QUICKSORT\TESTQUICKSORT\DEBUG\TESTQUICKSORT.ILK
C:\PROGRAMMING\CPLUSPLUS\2013SPRING\SORTING\QUICKSORT\TESTQUICKSORT\DEBUG\TESTQUICKSORT.EXE
C:\PROGRAMMING\CPLUSPLUS\2013SPRING\SORTING\QUICKSORT\TESTQUICKSORT\DEBUG\TESTQUICKSORT.PDB
